<define-tag pagetitle>DSA-4351-1 libphp-phpmailer</define-tag>
<define-tag report_date>2018-12-07</define-tag>
<define-tag secrefs>CVE-2018-19296 Bug#913912</define-tag>
<define-tag packages>libphp-phpmailer</define-tag>
<define-tag isvulnerable>yes</define-tag>
<define-tag fixed>yes</define-tag>
<define-tag fixed-section>no</define-tag>

#use wml::debian::security



</dl>
