<define-tag pagetitle>DLA-613-2 roundcube</define-tag>
<define-tag report_date>2017-7-27</define-tag>
<define-tag secrefs>Bug#843795 Bug#851214</define-tag>
<define-tag packages>roundcube</define-tag>
<define-tag isvulnerable>yes</define-tag>
<define-tag fixed>yes</define-tag>
<define-tag fixed-section>no</define-tag>

#use wml::debian::security

