<define-tag pagetitle>DLA-610-2 tiff3</define-tag>
<define-tag report_date>2017-1-30</define-tag>
<define-tag secrefs>Bug#852610</define-tag>
<define-tag packages>tiff3</define-tag>
<define-tag isvulnerable>yes</define-tag>
<define-tag fixed>yes</define-tag>
<define-tag fixed-section>no</define-tag>

#use wml::debian::security

