<define-tag pagetitle>DLA-1114-1 ruby1.9.1</define-tag>
<define-tag report_date>2017-9-26</define-tag>
<define-tag secrefs>CVE-2017-0898 CVE-2017-0899 CVE-2017-0900 CVE-2017-0901 CVE-2017-10784 CVE-2017-14033 CVE-2017-14064 Bug#873802 Bug#873906 Bug#875928 Bug#875931 Bug#875936</define-tag>
<define-tag packages>ruby1.9.1</define-tag>
<define-tag isvulnerable>yes</define-tag>
<define-tag fixed>yes</define-tag>
<define-tag fixed-section>no</define-tag>

#use wml::debian::security

