<define-tag pagetitle>DLA-1539-1 samba</define-tag>
<define-tag report_date>2018-10-8</define-tag>
<define-tag secrefs>CVE-2018-10858 CVE-2018-10919</define-tag>
<define-tag packages>samba</define-tag>
<define-tag isvulnerable>yes</define-tag>
<define-tag fixed>yes</define-tag>
<define-tag fixed-section>no</define-tag>

#use wml::debian::security

