<define-tag pagetitle>DLA-528-1 libcommons-fileupload-java</define-tag>
<define-tag report_date>2016-6-26</define-tag>
<define-tag secrefs>CVE-2016-3092</define-tag>
<define-tag packages>libcommons-fileupload-java</define-tag>
<define-tag isvulnerable>yes</define-tag>
<define-tag fixed>yes</define-tag>
<define-tag fixed-section>no</define-tag>

#use wml::debian::security

